﻿PRODUCT_GROUP,CLUSTER1_P50,CLUSTER2_P90_P95,CLUSTER3_P99
BEEF,109,777.36,1852.2
VEGETABLE,29,69,115
RICE,206.56,614.05,1012.5
YOGURT,15,39.15,62.1
BUTTER,107.48,199,454
CHICKEN,64.93,160.8,221.03
OIL AND SEASONING,108,895,2833.333333
SEAFOOD,99,320,1043
SPIRITS,192.0454545,909.6428571,2890
SWEET,34,125,245.525
PORK,85,273.28,405.93
CHEESE,104.5,195.60185,270.8333333
BERRIES,188.65,421.82,710
WINE,343.75,862.5,1599
OTHER MEAT,99.5,944.75,1983.7
SNACK,30,129,225.84
FLOUR,86.66666667,198.4126984,435
OTHER FRUIT,148.33,323.24,461.505
BEER,84.18367347,270.4545455,406.8181818
DRINKING WATER,9.333333333,30.3030303,93.93939394
MILK,9.86746988,25,41.5305
