﻿CATEGORY,TOP20_DAY_VISIT_P100,TOP20_SPENDING_P100,TOP20_CONSISTENCY_P100,TOP20_PRODUCT_VARIETY_P100,TOP20_DAY_VISIT_P99,TOP20_SPENDING_P99,TOP20_CONSISTENCY_P99,TOP20_PRODUCT_VARIETY_P99,TOP20_DAY_VISIT_P95,TOP20_SPENDING_P95,TOP20_CONSISTENCY_P95,TOP20_PRODUCT_VARIETY_P95,TOP20_DAY_VISIT_P80,TOP20_SPENDING_P80,TOP20_CONSISTENCY_P80,TOP20_PRODUCT_VARIETY_P80,TOP20_DAY_VISIT_P70,TOP20_SPENDING_P70,TOP20_CONSISTENCY_P70,TOP20_PRODUCT_VARIETY_P70,TOP20_DAY_VISIT_P60,TOP20_SPENDING_P60,TOP20_CONSISTENCY_P60,TOP20_PRODUCT_VARIETY_P60,TOP20_DAY_VISIT_P50,TOP20_SPENDING_P50,TOP20_CONSISTENCY_P50,TOP20_PRODUCT_VARIETY_P50,TOP20_DAY_VISIT_P40,TOP20_SPENDING_P40,TOP20_CONSISTENCY_P40,TOP20_PRODUCT_VARIETY_P40,TOP20_DAY_VISIT_P30,TOP20_SPENDING_P30,TOP20_CONSISTENCY_P30,TOP20_PRODUCT_VARIETY_P30,TOP20_DAY_VISIT_P20,TOP20_SPENDING_P20,TOP20_CONSISTENCY_P20,TOP20_PRODUCT_VARIETY_P20,TOP20_DAY_VISIT_P10,TOP20_SPENDING_P10,TOP20_CONSISTENCY_P10,TOP20_PRODUCT_VARIETY_P10,TOP20_AVG_DAY_VISIT,TOP20_AVG_SPENDING,TOP20_SD,TOP20_DAY_VISIT_P25,TOP20_SPENDING_P25,TOP20_CONSISTENCY_P25,TOP20_PRODUCT_VARIETY_P25
FASHION,253,57886733,12,20,23,98811,11,10,14,37936.5,8,8,8,15585,6,5,6,37936.5,8,8,5,8259.5,4,4,4,6170,3,3,3,4521,3,2,2,3173,2,2,2,2026.5,2,2,1,995,1,1,5.162331,13530.44048,5.003674375,2,2577.5,2,2
BEAUTY,124,6287339.05,12,24,17,141977,10,11,9,52794.41,7,8,4,16160,4,4,3,52794.41,7,8,3,6480,2,3,2,4290,2,2,2,2870,1,1,1,1755,1,1,1,1035,1,1,1,390,1,1,3.132028,14599.32432,3.479591372,1,1395,1,1
FOOD,365,2825805.61,12,54,212,60027.97,12,36,101,28612.4,12,30,43,12159.5,12,23,30,28612.4,12,30,22,5938,10,17,16,4169.35,9,14,11,2829,7,9,8,1791.03,5,9,5,990.01,4,6,2,393,2,3,29.138211,8241.116726,40.24702567,6,1364,4,8
HBA,29,469856,12,5,25,9177,12,4,18,5350.5,10,4,10,2602.58,8,4,8,5350.5,10,4,6,1368.86,5,3,5,999,4,3,3,712,3,2,2,484,2,2,2,298.47,2,2,1,153,1,1,6.386993,1657.221838,6.815684094,NULL,NULL,NULL,NULL
GROCERY,143,4591965.28,12,71,112,76624.72,12,49,71,37939.12,12,42,35,16537.91,11,32,26,37939.12,12,42,19,8233.04,9,23,14,5788.9,8,19,10,3920.42,6,11,7,2469.89,5,11,4,1359,3,7,2,543.82,2,3,21.845851,11067.14963,29.07466037,NULL,NULL,NULL,NULL
HOME NON ELEC,247,9887468.75,12,61,33,58843,11,19,20,22247.48,10,13,11,7181,7,8,8,22247.48,10,13,7,3108,5,5,5,2134,4,4,4,1443.7,3,3,3,932,3,3,2,552,2,2,1,260,1,2,7.19481,6010.3021,6.933117532,NULL,NULL,NULL,NULL
ELEC GADGET,5,1198800,5,10,5,54184,4,4,3,26900,3,3,2,6864.8,2,2,2,26900,3,3,1,1600,1,1,1,990,1,1,1,690,1,1,1,450,1,1,1,290,1,1,1,126,1,1,1.483982,5713.3805,1.539536136,NULL,NULL,NULL,NULL
HOME,30,23938528.69,12,51,25,95268.79,11,19,18,41283,9,13,10,15735,7,8,8,41283,9,13,6,5826.5,5,5,5,3745,4,4,4,2408,3,3,3,1502.5,3,3,2,857,2,2,1,390,1,2,6.662106,11068.9104,6.903324882,NULL,NULL,NULL,NULL
ELEC,10,7383114,10,43,9,95475,6,10,6,45300,5,7,3,18788.02,3,4,3,45300,5,7,2,6990,2,2,2,4010,2,2,1,2390,1,1,1,1452,1,1,1,828,1,1,1,390,1,1,2.376672,12168.4394,2.710395108,NULL,NULL,NULL,NULL
HOME GROCERY,357,506631.8,12,23,51,17752.94,12,14,29,8295.62,12,11,14,3180.17,9,8,10,8295.62,12,11,7,1419,6,5,5,962.24,4,4,4,639,3,3,3,399,2,3,2,224,2,2,1,96,1,1,8.923848,2216.557164,11.15992958,NULL,NULL,NULL,NULL
HOME ELEC,10,7383114,10,29,8,91132.25,6,9,6,42000,4,6,3,17266,3,3,2,42000,4,6,2,6260,2,2,2,3690,1,2,1,2190,1,1,1,1341,1,1,1,795,1,1,1,388,1,1,2.14423,11216.2595,2.364292179,NULL,NULL,NULL,NULL
CONSTRUCTION,170,7990364.49,12,95,58,257688.89,12,62,26,89460.81,10,38,9,26699,5,17,6,89460.81,10,38,4,8414,3,8,3,4270,2,5,2,1991.5,2,2,1,912.25,1,2,1,409,1,1,1,167,1,1,6.831099,23034.029,11.96826925,NULL,NULL,NULL,NULL
